{
  "date": "2025-03-05T20:28:17.770Z",
  "preset": "static",
  "framework": {
    "name": "nuxt",
    "version": "3.15.4"
  },
  "versions": {
    "nitro": "2.10.4"
  },
  "commands": {
    "preview": "npx serve ./public"
  },
  "config": {}
}